[{
"frequency":"Yearly",
"salary":"12.00",
"country":"AR",
"year":"2019",
"region":"Argentina",
"data":{
		"Impuesto Anual":"0.00"
	}
},{
"frequency":"Yearly",
"salary":"240.00",
"country":"AR",
"year":"2019",
"region":"Argentina",
"data":{
		"Impuesto Anual":"0.00"
	}
},{
"frequency":"Yearly",
"salary":"600.00",
"country":"AR",
"year":"2019",
"region":"Argentina",
"data":{
		"Impuesto Anual":"0.00"
	}
},{
"frequency":"Yearly",
"salary":"840.00",
"country":"AR",
"year":"2019",
"region":"Argentina",
"data":{
		"Impuesto Anual":"0.00"
	}
},{
"frequency":"Yearly",
"salary":"1200.00",
"country":"AR",
"year":"2019",
"region":"Argentina",
"data":{
		"Impuesto Anual":"0.00"
	}
},{
"frequency":"Yearly",
"salary":"2400.00",
"country":"AR",
"year":"2019",
"region":"Argentina",
"data":{
		"Impuesto Anual":"0.00"
	}
},{
"frequency":"Yearly",
"salary":"4800.00",
"country":"AR",
"year":"2019",
"region":"Argentina",
"data":{
		"Impuesto Anual":"0.00"
	}
},{
"frequency":"Yearly",
"salary":"7200.00",
"country":"AR",
"year":"2019",
"region":"Argentina",
"data":{
		"Impuesto Anual":"0.00"
	}
},{
"frequency":"Yearly",
"salary":"9600.00",
"country":"AR",
"year":"2019",
"region":"Argentina",
"data":{
		"Impuesto Anual":"0.00"
	}
},{
"frequency":"Yearly",
"salary":"10800.00",
"country":"AR",
"year":"2019",
"region":"Argentina",
"data":{
		"Impuesto Anual":"0.00"
	}
},{
"frequency":"Yearly",
"salary":"12000.00",
"country":"AR",
"year":"2019",
"region":"Argentina",
"data":{
		"Impuesto Anual":"0.00"
	}
},{
"frequency":"Yearly",
"salary":"24000.00",
"country":"AR",
"year":"2019",
"region":"Argentina",
"data":{
		"Impuesto Anual":"0.00"
	}
},{
"frequency":"Yearly",
"salary":"36000.00",
"country":"AR",
"year":"2019",
"region":"Argentina",
"data":{
		"Impuesto Anual":"0.00"
	}
},{
"frequency":"Yearly",
"salary":"48000.00",
"country":"AR",
"year":"2019",
"region":"Argentina",
"data":{
		"Impuesto Anual":"0.00"
	}
},{
"frequency":"Yearly",
"salary":"60000.00",
"country":"AR",
"year":"2019",
"region":"Argentina",
"data":{
		"Impuesto Anual":"0.00"
	}
},{
"frequency":"Yearly",
"salary":"72000.00",
"country":"AR",
"year":"2019",
"region":"Argentina",
"data":{
		"Impuesto Anual":"0.00"
	}
},{
"frequency":"Yearly",
"salary":"84000.00",
"country":"AR",
"year":"2019",
"region":"Argentina",
"data":{
		"Impuesto Anual":"0.00"
	}
},{
"frequency":"Yearly",
"salary":"96000.00",
"country":"AR",
"year":"2019",
"region":"Argentina",
"data":{
		"Impuesto Anual":"0.00"
	}
},{
"frequency":"Yearly",
"salary":"108000.00",
"country":"AR",
"year":"2019",
"region":"Argentina",
"data":{
		"Impuesto Anual":"0.00"
	}
},{
"frequency":"Yearly",
"salary":"120000.00",
"country":"AR",
"year":"2019",
"region":"Argentina",
"data":{
		"Impuesto Anual":"0.00"
	}
},{
"frequency":"Yearly",
"salary":"132000.00",
"country":"AR",
"year":"2019",
"region":"Argentina",
"data":{
		"Impuesto Anual":"0.00"
	}
},{
"frequency":"Yearly",
"salary":"144000.00",
"country":"AR",
"year":"2019",
"region":"Argentina",
"data":{
		"Impuesto Anual":"0.00"
	}
},{
"frequency":"Yearly",
"salary":"156000.00",
"country":"AR",
"year":"2019",
"region":"Argentina",
"data":{
		"Impuesto Anual":"0.00"
	}
},{
"frequency":"Yearly",
"salary":"168000.00",
"country":"AR",
"year":"2019",
"region":"Argentina",
"data":{
		"Impuesto Anual":"0.00"
	}
},{
"frequency":"Yearly",
"salary":"180000.00",
"country":"AR",
"year":"2019",
"region":"Argentina",
"data":{
		"Impuesto Anual":"0.00"
	}
},{
"frequency":"Yearly",
"salary":"192000.00",
"country":"AR",
"year":"2019",
"region":"Argentina",
"data":{
		"Impuesto Anual":"0.00"
	}
},{
"frequency":"Yearly",
"salary":"204000.00",
"country":"AR",
"year":"2019",
"region":"Argentina",
"data":{
		"Impuesto Anual":"0.00"
	}
},{
"frequency":"Yearly",
"salary":"216000.00",
"country":"AR",
"year":"2019",
"region":"Argentina",
"data":{
		"Impuesto Anual":"0.00"
	}
},{
"frequency":"Yearly",
"salary":"228000.00",
"country":"AR",
"year":"2019",
"region":"Argentina",
"data":{
		"Impuesto Anual":"0.00"
	}
},{
"frequency":"Yearly",
"salary":"240000.00",
"country":"AR",
"year":"2019",
"region":"Argentina",
"data":{
		"Impuesto Anual":"0.00"
	}
},{
"frequency":"Yearly",
"salary":"300000.00",
"country":"AR",
"year":"2019",
"region":"Argentina",
"data":{
		"Impuesto Anual":"0.00"
	}
},{
"frequency":"Yearly",
"salary":"360000.00",
"country":"AR",
"year":"2019",
"region":"Argentina",
"data":{
		"Impuesto Anual":"0.00"
	}
},{
"frequency":"Yearly",
"salary":"420000.00",
"country":"AR",
"year":"2019",
"region":"Argentina",
"data":{
		"Impuesto Anual":"0.00"
	}
},{
"frequency":"Yearly",
"salary":"480000.00",
"country":"AR",
"year":"2019",
"region":"Argentina",
"data":{
		"Impuesto Anual":"0.00"
	}
},{
"frequency":"Yearly",
"salary":"540000.00",
"country":"AR",
"year":"2019",
"region":"Argentina",
"data":{
		"Impuesto Anual":"0.00"
	}
},{
"frequency":"Yearly",
"salary":"600000.00",
"country":"AR",
"year":"2019",
"region":"Argentina",
"data":{
		"Impuesto Anual":"2420.23"
	}
},{
"frequency":"Yearly",
"salary":"660000.00",
"country":"AR",
"year":"2019",
"region":"Argentina",
"data":{
		"Impuesto Anual":"8159.10"
	}
},{
"frequency":"Yearly",
"salary":"720000.00",
"country":"AR",
"year":"2019",
"region":"Argentina",
"data":{
		"Impuesto Anual":"16836.49"
	}
},{
"frequency":"Yearly",
"salary":"780000.00",
"country":"AR",
"year":"2019",
"region":"Argentina",
"data":{
		"Impuesto Anual":"27294.46"
	}
},{
"frequency":"Yearly",
"salary":"840000.00",
"country":"AR",
"year":"2019",
"region":"Argentina",
"data":{
		"Impuesto Anual":"39702.96"
	}
},{
"frequency":"Yearly",
"salary":"900000.00",
"country":"AR",
"year":"2019",
"region":"Argentina",
"data":{
		"Impuesto Anual":"53991.77"
	}
},{
"frequency":"Yearly",
"salary":"960000.00",
"country":"AR",
"year":"2019",
"region":"Argentina",
"data":{
		"Impuesto Anual":"68558.27"
	}
},{
"frequency":"Yearly",
"salary":"1020000.00",
"country":"AR",
"year":"2019",
"region":"Argentina",
"data":{
		"Impuesto Anual":"84034.69"
	}
},{
"frequency":"Yearly",
"salary":"1080000.00",
"country":"AR",
"year":"2019",
"region":"Argentina",
"data":{
		"Impuesto Anual":"100759.19"
	}
},{
"frequency":"Yearly",
"salary":"1140000.00",
"country":"AR",
"year":"2019",
"region":"Argentina",
"data":{
		"Impuesto Anual":"117483.69"
	}
},{
"frequency":"Yearly",
"salary":"1200000.00",
"country":"AR",
"year":"2019",
"region":"Argentina",
"data":{
		"Impuesto Anual":"138133.43"
	}
},{
"frequency":"Yearly",
"salary":"1320000.00",
"country":"AR",
"year":"2019",
"region":"Argentina",
"data":{
		"Impuesto Anual":"183633.43"
	}
},{
"frequency":"Yearly",
"salary":"1440000.00",
"country":"AR",
"year":"2019",
"region":"Argentina",
"data":{
		"Impuesto Anual":"229133.43"
	}
},{
"frequency":"Yearly",
"salary":"1560000.00",
"country":"AR",
"year":"2019",
"region":"Argentina",
"data":{
		"Impuesto Anual":"274633.43"
	}
},{
"frequency":"Yearly",
"salary":"1680000.00",
"country":"AR",
"year":"2019",
"region":"Argentina",
"data":{
		"Impuesto Anual":"320133.43"
	}
},{
"frequency":"Yearly",
"salary":"1800000.00",
"country":"AR",
"year":"2019",
"region":"Argentina",
"data":{
		"Impuesto Anual":"365633.43"
	}
},{
"frequency":"Yearly",
"salary":"1920000.00",
"country":"AR",
"year":"2019",
"region":"Argentina",
"data":{
		"Impuesto Anual":"411133.43"
	}
},{
"frequency":"Yearly",
"salary":"2040000.00",
"country":"AR",
"year":"2019",
"region":"Argentina",
"data":{
		"Impuesto Anual":"456633.43"
	}
},{
"frequency":"Yearly",
"salary":"2160000.00",
"country":"AR",
"year":"2019",
"region":"Argentina",
"data":{
		"Impuesto Anual":"502133.43"
	}
},{
"frequency":"Yearly",
"salary":"2280000.00",
"country":"AR",
"year":"2019",
"region":"Argentina",
"data":{
		"Impuesto Anual":"547633.43"
	}
},{
"frequency":"Yearly",
"salary":"2400000.00",
"country":"AR",
"year":"2019",
"region":"Argentina",
"data":{
		"Impuesto Anual":"593133.43"
	}
},{
"frequency":"Yearly",
"salary":"3600000.00",
"country":"AR",
"year":"2019",
"region":"Argentina",
"data":{
		"Impuesto Anual":"1048133.43"
	}
},{
"frequency":"Yearly",
"salary":"4800000.00",
"country":"AR",
"year":"2019",
"region":"Argentina",
"data":{
		"Impuesto Anual":"1503133.43"
	}
},{
"frequency":"Yearly",
"salary":"6000000.00",
"country":"AR",
"year":"2019",
"region":"Argentina",
"data":{
		"Impuesto Anual":"1958133.43"
	}
},{
"frequency":"Yearly",
"salary":"7200000.00",
"country":"AR",
"year":"2019",
"region":"Argentina",
"data":{
		"Impuesto Anual":"2413133.43"
	}
},{
"frequency":"Yearly",
"salary":"8400000.00",
"country":"AR",
"year":"2019",
"region":"Argentina",
"data":{
		"Impuesto Anual":"2868133.43"
	}
},{
"frequency":"Yearly",
"salary":"9600000.00",
"country":"AR",
"year":"2019",
"region":"Argentina",
"data":{
		"Impuesto Anual":"3323133.43"
	}
},{
"frequency":"Yearly",
"salary":"10800000.00",
"country":"AR",
"year":"2019",
"region":"Argentina",
"data":{
		"Impuesto Anual":"3778133.43"
	}
},{
"frequency":"Yearly",
"salary":"12000000.00",
"country":"AR",
"year":"2019",
"region":"Argentina",
"data":{
		"Impuesto Anual":"4233133.43"
	}
}]